<?xml version="1.0" encoding="iso-8859-1"?>
<svg 
    width="24"
    height="40"
    version="1.1" 
    id="Capa_1" 
    xmlns="http://www.w3.org/2000/svg" 
    xmlns:xlink="http://www.w3.org/1999/xlink" 
    x="0px" 
    y="0px"
	viewBox="0 0 396.433 396.433" 
    style="enable-background:new 0 0 396.433 396.433;" 
    xml:space="preserve"
>
    <path d="M375.345,152.655C255.313,116.943,137.343,78.915,35.325,3.875C16.849-9.716,0.701,15.563,7.566,31.636
        c48.861,114.446,90.3,231.237,127.888,349.823c6.304,19.899,34.264,20.031,40.536,0c16.386-52.336,37.152-114.487,23.508-169.351
        c56.81-5.213,113.603-11.136,170.232-17.962C392.229,191.436,399.784,159.925,375.345,152.655z"/>
</svg>
