{
    "file_type": "observado_new",
    "variant": "en",
    "rules": [
        {
            "from_column": "id",
            "action": "rename",
            "to_column": "source_id"
        },
        {
            "from_column": "date",
            "action": "rename",
            "to_column": "date"
        },
        {
            "from_column": "time",
            "action": "rename",
            "to_column": "exact_time"
        },
        {
            "from_column": "created",
            "action": "drop"
        },
        {
            "from_column": "species name",
            "action": "drop"
        },
        {
            "from_column": "scientific name",
            "action": "new_column",
            "to_column": "access_to_data",
            "values": {
                "Aquila heliaca": 1,
                "Aquila chrysaetos": 1,
                "Falco cherrug": 1,
                "Falco peregrinus": 1,
                "Bubo bubo": 1,
                "Otis tarda": 1,
                "Tetrao tetrix": 1,
                "_else": 0
            }
        },
        {
            "from_column": "scientific name",
            "action": "rename",
            "to_column": "species"
        },
        {
            "from_column": "family",
            "action": "drop"
        },
        {
            "from_column": "species type",
            "action": "drop"
        },
        {
            "from_column": "species group",
            "action": "filter",
            "values": {
                "_all_except": "Birds"
            }
        },
        {
            "from_column": "species group",
            "action": "drop"
        },
        {
            "from_column": "number",
            "action": "rename",
            "to_column": "number"
        },
        {
            "from_column": "sex",
            "action": "new_column",
            "to_column": "gender",
            "values": {
                "U": "",
                "M": "str_male",
                "F": "str_female"
            }
        },
        {
            "from_column": "sex",
            "action": "drop"
        },
        {
            "from_column": "life stage",
            "action": "new_column",
            "to_column": "age",
            "values": {
                "unknown": "",
                "adult": "adult",
                "adult breeding": "adult",
                "adult non-breeding": "adult",
                "juvenile": "str_juvenile",
                "subadult": "str_subadult",
                "first autumn": "1y",
                "first winter": "str_immature",
                "first summer": "2y",
                "second winter": "",
                "second summer": "3y",
                "eclipse": "",
                "first year": "1y",
                "first calendar year": "1y",
                "second calendar year": "2y",
                "third calendar year": "3y",
                "third-winter": "",
                "fourth calendar year": "4y",
                "deviant": "",
                "nestling": "str_pull",
                "immature": "str_immature",
                "summer plumage": "",
                "winter plumage": "",
                "_else_original": true
            }
        },
        {
            "from_column": "life stage",
            "action": "drop"
        },
        {
            "from_column": "activity",
            "action": "new_column",
            "to_column": "status_of_individuals",
            "values": {
                "(colour) ring bearing": "",
                "adult in breeding area": "str_individual_in_breeding_habitat",
                "alarming": "str_agitated_behav_anxiety_call",
                "basking in sun": "",
                "calling": "",
                "caught by cat": "",
                "discovery (dead)": "",
                "distraction display": "str_distraction_injury_display",
                "flushing": "",
                "flying east": "",
                "flying north": "",
                "flying north-east": "",
                "flying north-west": "",
                "flying over": "str_overflying",
                "flying south": "",
                "flying south-east": "",
                "flying south-west": "",
                "flying west": "",
                "foraging": "",
                "hunting": "",
                "longterm stay": "",
                "moulting": "",
                "nest building": "str_nest_building",
                "occupied nest": "str_ad_incubating_or_on_occupied_nest",
                "occupied nest with eggs": "str_nest_with_egg",
                "occupied nest with young": "str_nest_with_young",
                "pair courtship and or mating": "str_courtship_display",
                "pair in breeding area": "str_pair_in_breeding_habitat",
                "powerline victim": "",
                "present": "",
                "probable nesting location": "str_visit_probable_nest",
                "recently fledged young": "str_recently_fledged_dawny_young,age=str_juvenile:str_recently_fledged_juvenile,age=str_pull:str_dawny_young",
                "recently used nest": "str_used_nest_eggshell",
                "resting": "",
                "road kill": "",
                "roost": "str_roost",
                "sick/injured": "",
                "Courtship/singing": "str_singing_male",
                "territorial": "str_territory_protection",
                "territory": "str_territorial_one_week_apart",
                "transport of food or faeces": "str_ad_with_food_faecal_sac",
                "windfarm victim": "",
                "window victim": "",
                "with brood patch": "str_brood_patch",
                "_else_original": true
            }
        },
        {
            "from_column": "activity",
            "action": "new_column",
            "to_column": "observed_unit",
            "values": {
                "(colour) ring bearing": "str_individuals",
                "adult in breeding area": "str_individuals",
                "alarming": "str_individuals",
                "basking in sun": "str_individuals",
                "calling": "str_individuals",
                "caught by cat": "str_carcass",
                "discovery (dead)": "str_carcass",
                "distraction display": "str_individuals",
                "flushing": "str_individuals",
                "flying east": "str_individuals",
                "flying north": "str_individuals",
                "flying north-east": "str_individuals",
                "flying north-west": "str_individuals",
                "flying over": "str_individuals",
                "flying south": "str_individuals",
                "flying south-east": "str_individuals",
                "flying south-west": "str_individuals",
                "flying west": "str_individuals",
                "foraging": "str_individuals",
                "hunting": "str_individuals",
                "longterm stay": "str_individuals",
                "moulting": "str_individuals",
                "nest building": "str_individuals",
                "occupied nest": "str_individuals",
                "occupied nest with eggs": "str_individuals",
                "occupied nest with young": "str_individuals",
                "pair courtship and or mating": "str_individuals",
                "pair in breeding area": "str_individuals",
                "powerline victim": "str_carcass",
                "present": "str_individuals",
                "probable nesting location": "str_individuals",
                "recently fledged young": "str_individuals",
                "recently used nest": "str_nest_cavity",
                "resting": "str_individuals",
                "road kill": "str_carcass",
                "roost": "str_individuals",
                "sick/injured": "str_individuals",
                "Courtship/singing": "str_individuals",
                "territorial": "str_individuals",
                "territory": "str_individuals",
                "transport of food or faeces": "str_individuals",
                "windfarm victim": "str_carcass",
                "window victim": "str_carcass",
                "with brood patch": "str_individuals",
                "_else": "str_individuals"
            }
        },
        {
            "from_column": "activity",
            "action": "new_column",
            "to_column": "cause_of_death",
            "values": {
                "(colour) ring bearing": "",
                "adult in breeding area": "",
                "alarming": "",
                "basking in sun": "",
                "calling": "",
                "caught by cat": "str_caught_by_cat",
                "discovery (dead)": "",
                "distraction display": "",
                "flushing": "",
                "flying east": "",
                "flying north": "",
                "flying north-east": "",
                "flying north-west": "",
                "flying over": "",
                "flying south": "",
                "flying south-east": "",
                "flying south-west": "",
                "flying west": "",
                "foraging": "",
                "hunting": "",
                "longterm stay": "",
                "moulting": "",
                "nest building": "",
                "occupied nest": "",
                "occupied nest with eggs": "",
                "occupied nest with young": "",
                "pair courtship and or mating": "",
                "pair in breeding area": "",
                "powerline victim": "str_powerline_victim",
                "present": "",
                "probable nesting location": "",
                "recently fledged young": "",
                "recently used nest": "",
                "resting": "",
                "road kill": "str_roadkill",
                "roost": "",
                "sick/injured": "",
                "Courtship/singing": "",
                "territorial": "",
                "territory": "",
                "transport of food or faeces": "",
                "windfarm victim": "str_windfarm_victim",
                "window victim": "str_window_collision",
                "with brood patch": "",                
                "_else": ""
            }
        },
        {
            "from_column": "activity",
            "action": "drop"
        },
        {
            "from_column": "method",
            "action": "append",
            "to_column": "comments_observation",
            "values": {
                "_all_except": "unknown"
            }
        },
        {
            "from_column": "method",
            "action": "new_column",
            "to_column": "non_human_observer",
            "form": 61,
            "values": {
                "soundtrapped": "str_soundtrapped",
                "telemetry": "str_telemetry",
                "with camera trap": "str_with_camera_trap",
                "_else": ""
            }
        },
        {
            "from_column": "method",
            "action": "new_column",
            "to_column": "observed_unit",
            "values": {
                "in pellet": "str_carcass",
                "tracks": "str_footprints"
            }
        },
        {
            "from_column": "method",
            "action": "new_column",
            "to_column": "observed_unit",
            "values": {
                "in pellet": "str_predation"
            }
        },
        {
            "from_column": "method",
            "action": "drop"
        },
        {
            "from_column": "counting method",
            "action": "new_column",
            "to_column": "count_precision",
            "values": {
                "Abundance": "",
                "extrapolated": "str_precise_estimate",
                "estimated": "str_rough_estimate",
                "real count": "str_exact_count",
                "seen not counted": "str_at_least_number",
                "unknown": ""
            }
        },
        {
            "from_column": "counting method",
            "action": "drop"
        },
        {
            "from_column": "related species",
            "action": "drop"
        },
        {
            "from_column": "location",
            "action": "drop"
        },
        {
            "from_column": "lat",
            "action": "coord"
        },
        {
            "from_column": "lat",
            "action": "rename",
            "to_column": "y"
        },
        {
            "from_column": "lng",
            "action": "coord"
        },
        {
            "from_column": "lng",
            "action": "rename",
            "to_column": "x"
        },
        {
            "from_column": "accuracy",
            "action": "drop"
        },
        {
            "from_column": "notes",
            "action": "complete_list",
            "values": {
                "_multiple": true
            }
        },
        {
            "from_column": "notes",
            "action": "complete_list",
            "form": 116,
            "values": {
                "_alternative_noduration": true
            }
        },
        {
            "from_column": "notes",
            "action": "complete_list",
            "form": 80,
            "values": {
                "_alternative_noduration": true
            }
        },
        {
            "from_column": "notes",
            "action": "complete_list",
            "form": 65,
            "values": {
                "_alternative": true
            }
        },
        {
            "from_column": "notes",
            "action": "complete_list",
            "form": 62,
            "values": {
                "_alternative": true
            }
        },
        {
            "from_column": "notes",
            "action": "complete_list",
            "form": 64,
            "values": {
                "_alternative": true
            }
        },
        {
            "from_column": "notes",
            "action": "append",
            "to_column": "comments_observation",
            "values": {
                "_all": true
            }
        },
        {
            "from_column": "notes",
            "action": "drop"
        },
        {
            "from_column": "validation status",
            "action": "drop"
        },
        {
            "from_column": "substrate",
            "action": "drop"
        },
        {
            "from_column": "is certain",
            "action": "filter",
            "values": {
                "False": true
            }
        },
        {
            "from_column": "is certain",
            "action": "drop"
        },
        {
            "from_column": "is escape",
            "action": "drop"
        },
        {
            "from_column": "obscurity",
            "action": "drop"
        },
        {
            "from_column": "embargo date",
            "action": "drop"
        },
        {
            "from_column": "external reference",
            "action": "drop"
        },
        {
            "from_column": "has photos",
            "action": "drop"
        },
        {
            "from_column": "has sounds",
            "action": "drop"
        },
        {
            "from_column": "link",
            "action": "rename",
            "to_column": "source"
        },
        {
            "from_column": "_new_columns",
            "action": "user_name"
        }
    ]
}
